counter/results/ClkDivCounter.vcd
$date
     Oct 11, 2024       08:54:08
$end

$version
 SystemC 2.3.4-Accellera --- Apr 22 2024 14:54:19
$end

$timescale
     1 ps
$end

$scope module SystemC $end
$var wire    1  aaaaa  myClk       $end
$var wire    1  aaaab  myClkDiv       $end
$upscope $end
$enddefinitions  $end

$comment
All initial values are dumped below at time 0 sec = 0 timescale units.
$end

$dumpvars
1aaaaa
0aaaab
$end

#2000
0aaaaa

#4000
1aaaaa

#6000
0aaaaa
1aaaab

#8000
1aaaaa

#10000
0aaaaa

#12000
1aaaaa

#14000
0aaaaa
0aaaab

#16000
1aaaaa

#18000
0aaaaa

#20000
1aaaaa

#22000
0aaaaa
1aaaab

#24000
1aaaaa

#26000
0aaaaa

#28000
1aaaaa

#30000
0aaaaa
0aaaab

#32000
1aaaaa

#34000
0aaaaa

#36000
1aaaaa

#38000
0aaaaa
1aaaab

#40000
1aaaaa

#42000
0aaaaa

#44000
1aaaaa

#46000
0aaaaa
0aaaab

#48000
1aaaaa

#50000
0aaaaa

#52000
1aaaaa

#54000
0aaaaa
1aaaab

#56000
1aaaaa

#58000
0aaaaa

#60000
1aaaaa

#62000
0aaaaa
0aaaab

#64000
1aaaaa

#66000
0aaaaa

#68000
1aaaaa

#70000
0aaaaa
1aaaab

#72000
1aaaaa

#74000
0aaaaa

#76000
1aaaaa

#78000
0aaaaa
0aaaab

#80000
1aaaaa

#82000
0aaaaa

#84000
1aaaaa

#86000
0aaaaa
1aaaab

#88000
1aaaaa

#90000
0aaaaa

#92000
1aaaaa

#94000
0aaaaa
0aaaab

#96000
1aaaaa

#98000
0aaaaa

#100000
1aaaaa

#102000
0aaaaa
1aaaab

#104000
1aaaaa

#106000
0aaaaa

#108000
1aaaaa

#110000
0aaaaa
0aaaab

#112000
1aaaaa

#114000
0aaaaa

#116000
1aaaaa

#118000
0aaaaa
1aaaab

#120000
1aaaaa

#122000
0aaaaa

#124000
1aaaaa

#126000
0aaaaa
0aaaab

#128000
1aaaaa

#130000
0aaaaa

#132000
1aaaaa

#134000
0aaaaa
1aaaab

#136000
1aaaaa

#138000
0aaaaa

#140000
1aaaaa

#142000
0aaaaa
0aaaab

#144000
1aaaaa

#146000
0aaaaa

#148000
1aaaaa

#150000
0aaaaa
1aaaab

#152000
1aaaaa

#154000
0aaaaa

#156000
1aaaaa

#158000
0aaaaa
0aaaab

#160000
1aaaaa

#162000
0aaaaa

#164000
1aaaaa

#166000
0aaaaa
1aaaab

#168000
1aaaaa

#170000
0aaaaa

#172000
1aaaaa

#174000
0aaaaa
0aaaab

#176000
1aaaaa

#178000
0aaaaa

#180000
1aaaaa

#182000
0aaaaa
1aaaab

#184000
1aaaaa

#186000
0aaaaa

#188000
1aaaaa

#190000
0aaaaa
0aaaab

#192000
1aaaaa

#194000
0aaaaa

#196000
1aaaaa

#198000
0aaaaa
1aaaab

